module github.com/aydinmuzaffer/sofram-notification

go 1.18

require (
	github.com/aws/aws-lambda-go v1.32.0
	github.com/aws/aws-sdk-go-v2 v1.16.4
	github.com/aws/aws-sdk-go-v2/config v1.15.9
	github.com/aws/aws-sdk-go-v2/service/s3 v1.26.10
)

require (
	github.com/aws/aws-sdk-go-v2/aws/protocol/eventstream v1.4.1 // indirect
	github.com/aws/aws-sdk-go-v2/credentials v1.12.4 // indirect
	github.com/aws/aws-sdk-go-v2/feature/ec2/imds v1.12.5 // indirect
	github.com/aws/aws-sdk-go-v2/internal/configsources v1.1.11 // indirect
	github.com/aws/aws-sdk-go-v2/internal/endpoints/v2 v2.4.5 // indirect
	github.com/aws/aws-sdk-go-v2/internal/ini v1.3.12 // indirect
	github.com/aws/aws-sdk-go-v2/internal/v4a v1.0.2 // indirect
	github.com/aws/aws-sdk-go-v2/service/internal/accept-encoding v1.9.1 // indirect
	github.com/aws/aws-sdk-go-v2/service/internal/checksum v1.1.6 // indirect
	github.com/aws/aws-sdk-go-v2/service/internal/presigned-url v1.9.5 // indirect
	github.com/aws/aws-sdk-go-v2/service/internal/s3shared v1.13.5 // indirect
	github.com/aws/aws-sdk-go-v2/service/sso v1.11.7 // indirect
	github.com/aws/aws-sdk-go-v2/service/sts v1.16.6 // indirect
	github.com/aws/smithy-go v1.11.2 // indirect
)
